-------------------------------------------------------------------------------
Test set: com.example.demo.BooksApplicationTests
-------------------------------------------------------------------------------
Tests run: 3, Failures: 0, Errors: 0, Skipped: 0, Time elapsed: 15.684 s - in com.example.demo.BooksApplicationTests
