C:\Users\Shubham Sharma\Documents\new-workspace-spring-tool-suite-4-4.5.1.RELEASE\books\src\main\java\com\example\demo\config\SwaggerConfig.java
C:\Users\Shubham Sharma\Documents\new-workspace-spring-tool-suite-4-4.5.1.RELEASE\books\src\main\java\com\example\demo\request\AddBookRequest.java
C:\Users\Shubham Sharma\Documents\new-workspace-spring-tool-suite-4-4.5.1.RELEASE\books\src\main\java\com\example\demo\config\RestTemplateConfiguration.java
C:\Users\Shubham Sharma\Documents\new-workspace-spring-tool-suite-4-4.5.1.RELEASE\books\src\main\java\com\example\demo\response\GetMediaCoverageResponse.java
C:\Users\Shubham Sharma\Documents\new-workspace-spring-tool-suite-4-4.5.1.RELEASE\books\src\main\java\com\example\demo\response\AddBookResponse.java
C:\Users\Shubham Sharma\Documents\new-workspace-spring-tool-suite-4-4.5.1.RELEASE\books\src\main\java\com\example\demo\controller\BookController.java
C:\Users\Shubham Sharma\Documents\new-workspace-spring-tool-suite-4-4.5.1.RELEASE\books\src\main\java\com\example\demo\response\MediaCoverageDTO.java
C:\Users\Shubham Sharma\Documents\new-workspace-spring-tool-suite-4-4.5.1.RELEASE\books\src\main\java\com\example\demo\BooksApplication.java
C:\Users\Shubham Sharma\Documents\new-workspace-spring-tool-suite-4-4.5.1.RELEASE\books\src\main\java\com\example\demo\response\GetBookEntity.java
C:\Users\Shubham Sharma\Documents\new-workspace-spring-tool-suite-4-4.5.1.RELEASE\books\src\main\java\com\example\demo\response\GetBookResponse.java
C:\Users\Shubham Sharma\Documents\new-workspace-spring-tool-suite-4-4.5.1.RELEASE\books\src\main\java\com\example\demo\domain\Book.java
C:\Users\Shubham Sharma\Documents\new-workspace-spring-tool-suite-4-4.5.1.RELEASE\books\src\main\java\com\example\demo\service\BookService.java
C:\Users\Shubham Sharma\Documents\new-workspace-spring-tool-suite-4-4.5.1.RELEASE\books\src\main\java\com\example\demo\repository\BookRepository.java
